{
  "particles": {
    "number": {
      "value": 180,
      "density": {
        "enable": true,
        "value_area": 500
      }
    },
    "color": {
      "value": "#a6c8fa"
    },
    "shape": {
      "type": "circle",
      "stroke": {
        "width": 1,
        "color": "#eb7624"
      },
      "polygon": {
        "nb_sides": 3
      },
      "image": {
        "src": "img/github.svg",
        "width": 100,
        "height": 100
      }
    },
    "opacity": {
      "value": 1,
      "random": false,
      "anim": {
        "enable": false,
        "speed": 1,
        "opacity_min": 0.1,
        "sync": false
      }
    },
    "size": {
      "value": 2,
      "random": true,
      "anim": {
        "enable": false,
        "speed": 40,
        "size_min": 0.1,
        "sync": true
      }
    },
    "line_linked": {
      "enable": true,
      "distance": 126.26362266116361,
      "color": "#000000",
      "opacity": 0.20517838682439088,
      "width": 1
    },
    "move": {
      "enable": true,
      "speed": 6.313181133058181,
      "direction": "none",
      "random": true,
      "straight": false,
      "out_mode": "bounce",
      "bounce": false,
      "attract": {
        "enable": true,
        "rotateX": 600,
        "rotateY": 1200
      }
    }
  },
  "interactivity": {
    "detect_on": "canvas",
    "events": {
      "onhover": {
        "enable": true,
        "mode": "grab"
      },
      "onclick": {
        "enable": false,
        "mode": "push"
      },
      "resize": true
    },
    "modes": {
      "grab": {
        "distance": 150,
        "line_linked": {
          "opacity": 1
        }
      },
      "bubble": {
        "distance": 828.318756547372,
        "size": 40,
        "duration": 2,
        "opacity": 8,
        "speed": 3
      },
      "repulse": {
        "distance": 200,
        "duration": 0.4
      },
      "push": {
        "particles_nb": 4
      },
      "remove": {
        "particles_nb": 2
      }
    }
  },
  "retina_detect": true
}